<?xml version="1.0" encoding="utf-8"?>
<svg
        version="1.1" xmlns="http://www.w3.org/2000/svg" xmlns:xlink="http://www.w3.org/1999/xlink" xml:space="preserve"
        viewBox="0 0 46.3 46.3"
        class="videoPause"
>
    <path d="M46.3,23.1c0,12.8-10.4,23.1-23.1,23.1S0,35.9,0,23.1S10.4,0,23.1,0S46.3,10.4,46.3,23.1z M20.3,32.8V13.4h-4.9 v19.4H20.3z M30.8,32.8V13.4H26v19.4H30.8z"/>
</svg>
