<svg
xmlns="http://www.w3.org/2000/svg"
xmlns:xlink="http://www.w3.org/1999/xlink"
viewBox="0 0 35 82"
>
    <path fill-rule="evenodd"  fill="#a0a0a0" d="M31.020,82.002 C31.650,82.002 32.285,81.799 32.824,81.379 C34.119,80.369 34.361,78.485 33.364,77.172 L5.999,41.151 C5.934,41.064 5.934,40.943 5.999,40.856 L33.364,4.835 C34.361,3.521 34.119,1.638 32.824,0.628 C31.528,-0.384 29.669,-0.137 28.672,1.175 L1.308,37.196 C-0.395,39.438 -0.395,42.569 1.308,44.810 L28.672,80.832 C29.255,81.600 30.132,82.002 31.020,82.002 Z"/>
</svg>
