<svg
xmlns="http://www.w3.org/2000/svg"
xmlns:xlink="http://www.w3.org/1999/xlink"
viewBox="0 0 14 40"
>
<path fill-rule="evenodd"  fill="rgb(255, 255, 255)"
d="M12.777,6.576 C11.965,7.254 10.872,7.592 9.499,7.592 C8.233,7.592 7.186,7.254 6.356,6.576 C5.524,5.899 5.109,4.990 5.109,3.849 C5.109,2.637 5.524,1.692 6.356,1.015 C7.186,0.338 8.233,-0.001 9.499,-0.001 C10.872,-0.001 11.965,0.338 12.777,1.015 C13.592,1.692 13.997,2.637 13.997,3.849 C13.997,4.990 13.592,5.899 12.777,6.576 ZM8.979,12.325 C9.973,12.200 10.849,12.138 11.608,12.138 L12.583,12.777 L7.705,35.720 L11.500,35.720 L11.500,37.585 C11.029,37.914 10.478,38.224 9.847,38.517 C9.214,38.810 8.545,39.067 7.841,39.286 C7.136,39.505 6.423,39.678 5.700,39.807 C4.977,39.934 4.291,39.998 3.641,39.998 C2.268,39.998 1.319,39.739 0.796,39.223 C0.271,38.706 0.009,38.145 0.009,37.538 C0.009,36.825 0.063,36.130 0.171,35.453 C0.281,34.776 0.425,34.028 0.606,33.207 L4.291,16.629 L0.930,15.881 L0.930,14.063 C1.473,13.849 2.196,13.627 3.098,13.394 C4.001,13.163 4.959,12.958 5.971,12.779 C6.982,12.601 7.985,12.450 8.979,12.325 Z"/>
</svg>
