<svg
xmlns="http://www.w3.org/2000/svg"
xmlns:xlink="http://www.w3.org/1999/xlink"
viewBox="0 0 24 40"
>
<path
d="M23.353,24.224 C22.116,25.495 20.629,26.414 18.976,27.056 C17.414,27.663 15.702,27.968 14.009,28.171 C14.264,28.449 14.385,28.586 14.544,28.747 C16.845,31.061 19.155,33.365 21.447,35.686 C22.228,36.477 22.391,37.458 21.961,38.378 C21.491,39.383 20.439,40.045 19.407,39.974 C18.753,39.929 18.243,39.603 17.790,39.146 C16.054,37.397 14.286,35.680 12.585,33.898 C12.090,33.380 11.852,33.478 11.415,33.928 C9.669,35.728 7.894,37.500 6.109,39.263 C5.308,40.054 4.354,40.196 3.424,39.744 C2.436,39.265 1.807,38.255 1.856,37.240 C1.889,36.553 2.227,36.029 2.697,35.558 C4.974,33.282 7.243,31.001 9.514,28.721 C9.664,28.570 9.805,28.409 10.023,28.175 C6.927,27.851 4.135,27.087 1.744,25.215 C1.448,24.983 1.141,24.758 0.871,24.498 C-0.175,23.492 -0.281,22.339 0.547,21.152 C1.255,20.136 2.444,19.864 3.680,20.447 C3.919,20.560 4.147,20.701 4.366,20.853 C8.821,23.918 14.941,24.003 19.412,20.991 C19.855,20.651 20.329,20.374 20.878,20.232 C21.945,19.958 22.940,20.350 23.513,21.285 C24.167,22.353 24.159,23.395 23.353,24.224 ZM11.910,20.247 C6.385,20.228 1.856,15.643 1.888,10.102 C1.920,4.501 6.452,-0.013 12.031,0.002 C17.621,0.017 22.108,4.596 22.080,10.256 C22.051,15.785 17.490,20.266 11.910,20.247 ZM11.991,5.172 C9.226,5.169 7.018,7.399 7.040,10.175 C7.060,12.916 9.267,15.090 12.016,15.080 C14.757,15.070 16.940,12.866 16.930,10.116 C16.921,7.365 14.733,5.175 11.991,5.172 Z"/>
</svg>
