<svg
xmlns="http://www.w3.org/2000/svg"
xmlns:xlink="http://www.w3.org/1999/xlink"
viewBox="0 0 42 24">
<path
d="M34.890,11.767 C34.890,11.767 40.424,4.148 40.974,1.644 C41.157,0.750 40.754,0.249 39.801,0.249 C39.801,0.249 36.613,0.249 35.000,0.249 C33.900,0.249 33.497,0.714 33.168,1.394 C33.168,1.394 30.572,6.792 27.414,10.193 C26.400,11.293 25.884,11.623 25.324,11.623 C24.873,11.623 24.665,11.256 24.665,10.264 L24.665,1.573 C24.665,0.357 24.518,-0.001 23.492,-0.001 L15.796,-0.001 C15.209,-0.001 14.843,0.332 14.843,0.786 C14.843,1.931 16.639,2.190 16.639,5.293 L16.639,11.695 C16.639,12.983 16.565,13.483 15.942,13.483 C14.293,13.483 10.372,7.940 8.173,1.644 C7.733,0.357 7.256,-0.001 6.010,-0.001 L1.209,-0.001 C0.513,-0.001 -0.000,0.464 -0.000,1.143 C-0.000,2.395 1.503,8.190 7.403,15.951 C11.361,21.173 16.565,23.999 21.256,23.999 C24.115,23.999 24.811,23.534 24.811,22.354 L24.811,18.348 C24.811,17.346 25.215,16.917 25.801,16.917 C26.461,16.917 27.625,17.124 30.345,19.743 C33.571,22.747 33.791,23.999 35.550,23.999 L40.937,23.999 C41.487,23.999 42.000,23.749 42.000,22.854 C42.000,21.674 40.424,19.564 38.005,17.060 C37.016,15.773 35.403,14.378 34.890,13.734 C34.157,12.983 34.377,12.553 34.890,11.767 Z"/>
</svg>
